D:\POUB\spring-angular\spring-angular-java\src\main\java\com\bushansirgur\spring\controller\BookController.java
D:\POUB\spring-angular\spring-angular-java\src\main\java\com\bushansirgur\spring\config\WebConfig.java
D:\POUB\spring-angular\spring-angular-java\src\main\java\com\bushansirgur\spring\service\BookService.java
D:\POUB\spring-angular\spring-angular-java\src\main\java\com\bushansirgur\spring\model\Book.java
D:\POUB\spring-angular\spring-angular-java\src\main\java\com\bushansirgur\spring\dao\BookDAOImpl.java
D:\POUB\spring-angular\spring-angular-java\src\main\java\com\bushansirgur\spring\config\MyWebAppInitializer.java
D:\POUB\spring-angular\spring-angular-java\src\main\java\com\bushansirgur\spring\dao\BookDAO.java
D:\POUB\spring-angular\spring-angular-java\src\main\java\com\bushansirgur\spring\service\BookServiceImpl.java
D:\POUB\spring-angular\spring-angular-java\src\main\java\com\bushansirgur\spring\config\AppConfig.java
